{
  "dólar-comercial": {
    "description": "O dólar dos Estados Unidos (US Dollar, USD, US$) é a moeda emitida pelos Estados Unidos através da Reserva Federal dos Estados Unidos.\nEle também é a moeda oficial do Timor-Leste, Equador, El Salvador, Panamá e Porto Rico.\nTambém é usado não-oficialmente nas Ilhas Virgens Britânicas, Ilhas Marshall, Estados Federados da Micronésia, Palau, Turks e Cacos e Zimbabwe.\nEle possui moedas de 1, 5, 10, 25, 50 cents e 1 dólar. As notas que circulam hoje são de 1, 5, 10, 20, 50 e 100 dólares.\nDólar comercial é utilizado para transações comerciais entre dois bancos, instituições financeiras e grandes empresas. Existem cotações diferentes de compra e venda. Essa diferença representa o lucro bruto do banco responsável pela intermediação das negociações.",
    "name": "Dólar (US Dollar, USD, US$)"
  },
  "dólar-turismo": {
    "description": "O dólar dos Estados Unidos (US Dollar, USD, US$) é a moeda emitida pelos Estados Unidos através da Reserva Federal dos Estados Unidos.\nEle também é a moeda oficial do Timor-Leste, Equador, El Salvador, Panamá e Porto Rico.\nTambém é usado não-oficialmente nas Ilhas Virgens Britânicas, Ilhas Marshall, Estados Federados da Micronésia, Palau, Turks e Cacos e Zimbabwe.\nEle possui moedas de 1, 5, 10, 25, 50 cents e 1 dólar. As notas que circulam hoje são de 1, 5, 10, 20, 50 e 100 dólares.\nDólar turismo é utilizado nas negociações de moeda estrangeira entre bancos e pessoas físicas. Normalmente com o objetivo de viajar e comprar no exterior.",
    "name": "Dólar (US Dollar, USD, US$)"
  },
  "dólar-canadense": {
    "description": "O dólar canadense (código CAD e símbolos $ ou C$) é a moeda emitida e utilizada no Canadá. Existem moedas de 1, 5, 10, 25, 50 cents e 1 (loonie) e 2 (toonie) dólares canadenses. As notas podem ser de 5, 10, 20, 50 ou 100 dólares canadenses. Cem cents formam um dólar canadense.",
    "name": "Dólar Canadense (código CAD e símbolos $ ou C$)"
  },
  "euro": {
    "description": "O euro (EUR, €) é a moeda oficial da zona Euro, constituída por 19 dos 28 estados-membro da União Europeia.\nEla é também usada de forma oficial pelas instituições da União Européia e por quatro outros países europeus e, de forma unilateral, por outros dois.\nEm 2018, a moeda era usada diariamente por cerca de 343 milhões de europeus.\nEla também é usada oficialmente em diversos territórios ultramarinos da União Européia.\nO euro é a unidade básica da moeda como o R$ 1 (um real) no Brasil. 1 € (um euro) equivalem a 100 cêntimos.\nAs notas são iguais em todos os países, mas cada país tem suas próprias faces das moedas de Euro.\nA divisão entre as moedas é a seguinte: 2 € (2 Euros), 1 € (1 Euro), 0,50 € (50 cêntimos), 0,20 € (20 cêntimos), 0,10 € (10 cêntimos), 0,05 € (5 cêntimos), 0,02 € (2 cêntimos) e 0,01 € (1 cêntimos).\nAs notas de Euro são: 5 € (5 euros), 10 € (10 euros), 20 € (20 euros), 50 € (50 euros), 100 € (100 euros) e 200 € (200 euros). A nota de 500 € (500 euros) foi descontinuada.",
    "name": "Euro (EUR, €)"
  },
  "libra-esterlina": {
    "description": "A Libra Esterlina (GBP, €) é a moeda oficial do Reino Unido e seus territórios. Ela possui moedas de 1 penny, 2p, 5p, 10p, 20p, 50p, £1, £2 e £5. As notas são de £5, £10, £20 e £50. £1 na Escócia e £100 na Escócia e Irlanda do Norte.\nO preço da libra é procurado por pessoas que querem viajar para o Reino Unido seja a negócios ou passeio, que querem comprar produtos importados, trabalham com exportação e investidores.\nNo libra hoje mostramos o valor da libra esterlina e não da libra egípcia. É a quarta maior moeda em circulação no mundo e a terceira moeda mais utilizada como reserva pelos bancos centrais.\nA cotação da libra depende de várias forças do mercado e de acordo com a oferta e demanda. Quando há excesso de libra no mercado, os preços caem, desvalorizando a moeda. Quando há poucas, o preço sobe, valorizando-a.\nEmpresas que fazem comércio onde a libra circula são afetadas pela cotação da moeda. Quando a cotação sobe, os exportadores brasileiros lucram, pois aumenta-se o ganho ao converter da libra para o real. Os importadores se beneficiam da desvalorização da libra, pois adquire-se o produto a preços menores. O que impacta os consumidores finais dos produtos importados no mercado doméstico, pois pagam um preço menor pelos produtos.\nOs turistas também são influenciados pela cotação da libra em relação ao real. O poder de compra em viagem ao Reino Unido é determinado pela quantidade de libras que uma quantia em real pode comprar.",
    "name": "Libra Esterlina (GBP, €)"
  },
  "peso-argentino": {
    "description": "O peso argentino (código ARS e símbolo $) é a moeda oficial da Argentina. Ela possui moedas de 5, 10, 25, 50 centavos e 1 peso argentino. As notas são: 2, 5, 10, 20, 50 e 100 pesos argentinos. A moeda entrou em circulação com o nome real argentino em 1813 e eram emitidas somente moedas. As cédulas foram introduzidas em 1820. O real argentino foi substituído pelo peso argentino em 1881. Em 1985, o peso foi substituído pelo austral para combater a inflação. Em 1992, foi instituída uma nova linha de moedas 'peso'.",
    "name": "Peso Argentino (código ARS e símbolo $)"
  },
  "bitcoin": {
    "description": "Bitcoin (BTC -> abrev ISO 4217: BTC ou XBT) é uma criptomoeda descentralizada ou um dinheiro eletrônico para transações ponto-a-ponto (peer-to-peer electronic cash system) apresentada em 2008, na lista de discussão The Cryptography Mailing por um programador ou grupo de programadores sob o pseudônimo Satoshi Nakamoto, é considerada a primeira moeda digital mundial descentralizada, constituindo um sistema econômico alternativo (peer-to-peer electronic cash system), e responsável pelo ressurgimento do sistema bancário livre.\nO Bitcoin permite transações financeiras sem intermediários, mas verificadas por todos usuários (nodos) da rede, que são gravadas em um banco de dados distribuídos, chamado de blockchain, uma rede descentralizada, isto é, uma estrutura sem uma entidade administradora central, o que torna inviável qualquer autoridade financeira ou governamental manipular a emissão e o valor da criptomoeda ou induzir a inflação com a produção de mais dinheiro. No entanto, grandes movimentos especulativos de oferta e demanda influenciam na oscilação de seu valor no mercado de câmbio, sendo definido livremente durante as 24 horas do dia.\nNo âmbito financeiro e contabilístico internacional, semelhante ao ouro, o Bitcoin pode ser enquadrado em alguns termos: ativo especulativo (bem material), dinheiro commodity (mercadoria), unidade de conta (bem de troca) - por ser empregado como meio de troca e por possuir uma escassez relativa além de cotação própria - que agregada a abreviatura XBT tenta enquadrar-se na ISO 4217, código que representa moedas correntes.",
    "name": "Bitcoin (BTC -> abrev ISO 4217: BTC ou XBT)"
  },
  "litecoin": {
    "description": "É uma criptomoeda e sistema de pagamento online baseado em um protocolo de código aberto e é independente de qualquer autoridade central. Um Litecoin pode ser transferido por computadores e smartphones sem recurso a uma instituição financeira intermediária. Inspirada e tecnicamente quase igual ao Bitcoin.",
    "name": "Litecoin"
  },
  "iene-japonês": {
    "description": "O iene (JPY, ¥) é a moeda oficial do Japão. Existem moedas de ¥1, ¥5, ¥10, ¥50, ¥100, ¥500. As notas são de ¥1000, ¥2000, ¥5000, ¥10000.\nO preço do iene é procurado por pessoas que querem viajar para o Japão seja a turismo ou negócios, que querem comprar produtos importados, trabalham com exportação e investidores.",
    "name": "Iene Japonês (JPY, ¥)"
  },
  "franco-suíço": {
    "description": "O Franco Suíço é a moeda utilizada na Suíca e Liechtenstein. É subdividido em 100 cêntimos. As notas em circulação são de 10, 20, 50, 100, 200 e 1000 Francos. As moedas são 1 (não emitida), 5, 10, 20 e 50 centavos; 1, 2 e 5 Francos.\nA cotação do Franco Suíço depende de várias forças do mercado e de acordo com a oferta e demanda. Quando há excesso de francos suíços no mercado, os preços caem, desvalorizando a moeda. Quando há poucas, o preço sobe, valorizando-a.\nEmpresas (pessoas jurídicas) que fazem comércio onde o franco suíço circula são afetadas pela sua cotação. Quando ela sobe, os exportadores brasileiros lucram, pois aumenta-se o ganho ao converter do franco suíço para o real. Os importadores se beneficiam da desvalorização do franco suíço, pois adquire-se o produto a preços menores. O que impacta os consumidores finais dos produtos importados no mercado doméstico, pois pagam um preço menor pelos produtos.\nOs turistas também são influenciados pela cotação do franco suíço em relação ao real. O poder de compra em viagem à Suíça e Liechtenstein é determinado pela quantidade de francos suíços que uma quantia em real pode comprar.",
    "name": "Franco Suíço"
  },
  "dólar-australiano": {
    "description": "O dólar australiano (código AUD e símbolos A$, AU$, $A ou $AU) é a moeda emitida (e utilizada) na Austrália além de ser a moeda oficial do Território Antártico Australiano, da Ilha do Natal, Ilhas Cocos, Ilha Heard, Ilhas McDonald e Ilha Norfolk. Ela é subdividida em 100 cents (de símbolo: c), traduzido normalmente para cêntimos. O dólar australiano é a oitava moeda mais utilizada no comércio estrangeiro.",
    "name": "Dólar Australiano (código AUD e símbolos A$, AU$, $A ou $AU)"
  },
  "yuan-chinês": {
    "description": "Renminbi é a moeda oficial da República Popular da China e é distribuída pelo Banco Popular da China. O yuan ou, em português, iuane é a unidade básica do renminbi. O Yuan é subdividido em 10 jiao e 1 jiao é subdivididio em 10 fen. Coloquialmente, em vez de yuan, usa-se muitas vezes kuai. As moedas que circulam são de ¥100, ¥50, ¥20, ¥10, ¥5, e ¥1.\nA cotação do yuan depende de várias forças do mercado e de acordo com a oferta e demanda. Quando há excesso de yuans no mercado, os preços caem, desvalorizando a moeda. Quando há poucas, o preço sobe, valorizando-a.\nEmpresas (pessoas jurídicas) que fazem comércio onde o yuan circula são afetadas pela sua cotação. Quando ela sobe, os exportadores brasileiros lucram, pois aumenta-se o ganho ao converter da yuan para o real. Os importadores se beneficiam da desvalorização do yuan, pois adquire-se o produto a preços menores. O que impacta os consumidores finais dos produtos importados no mercado doméstico, pois pagam um preço menor pelos produtos.\nOs turistas também são influenciados pela cotação do yuan em relação ao real. O poder de compra em viagem à China é determinado pela quantidade de yuans que uma quantia em real pode comprar.",
    "name": "Yuan Chinês (yuan ou, em português, iuane)"
  },
  "novo-shekel-israelense": {
    "description": "Novo shekel israelense (português brasileiro) ou novo shekel israelita (português europeu) (do hebraico שקל חדש abrev. NIS; símbolo: ₪; também escrito como shekel; pl. sheqalim ou shekalim; plural em português: shekeles) é a moeda corrente oficial de Israel. Às vezes o nome é semiaportuguesado como shequel, ou aportuguesado como siclo ou xéquel.\nEm hebraico, o NIS é chamado 'שקל חדש' (Sheqel Chadash), e geralmente abreviado como ש'ח (pronuncia-se shakh). O símbolo para o NIS é ₪, uma combinação das primeiras letras em hebraico das palavras sheqel (ש) e chadash (ח).\nEsta moeda corrente entrou em vigor no Estado de Israel a partir do dia 4 de setembro de 1985, como parte da reforma financeira para conter a inflação. Porém a troca completa da moeda antiga, o shekel israelense, para a nova moeda, o novo shekel israelense, se deu em 1 de janeiro de 1986.\nO Novo Shekel substituiu o shekel israelense num câmbio de 1000 para 1, ou seja, foram cortados 3 zeros. O Novo Shekel é fracionado por 100 agorot.",
    "name": "Novo Shekel Israelense (novo shekel israelita, código NIS e símbolo ₪)"
  },
  "ethereum": {
    "description": "É uma moeda digital e também uma plataforma de computação distribuída que pode executar contratos inteligentes. O Ethereum armazena registros de transações numa espécie de planilha pública, distribuída e criptografada, o blockchain. O diferencial do Ethereum para as outras altcoins e pro Bitcoin é que o Ethereum visa utilizar a tecnologia blockchain e os contratos inteligentes para tudo que possa ser programado.\nUm ethereum pode ser transferido por computadores e smartphones sem recurso de uma instituição financeira intermediária.",
    "name": "Ethereum (código ETH)"
  },
  "ripple": {
    "description": "XRP (token da rede Ripple) é o nome de uma moeda digital e de uma rede de pagamentos aberta em que essa moeda é transferida. Ela é um sistema distribuído de pagamentos de código aberto. O objetivo do XRP é permitir que as pessoas se libertem dos muros criados pelas redes financeiras, por exemplo cartões de crédito, banco e outras instituições que restringem o acesso com taxas, encargos para operações cambiais e atrasos de pagamentos.\nA moeda é muito parecida com o Bitcoin. É baseada em fórmulas matemáticas e um número limitado de unidades que podem ser mineradas e podem ser transferidas de conta para conta (peer-to-peer) sem a necessidade de uma terceira parte intervindo.\nEla é projetada para permitir a transferência transparente de qualquer moeda: dólar, euro, bitcoins e outras.",
    "name": "Ripple (código XRP | token da rede Ripple)"
  }
}
